{
  "project_info": {
    "project_number": "342574660041",
    "project_id": "maverllicious-application",
    "storage_bucket": "maverllicious-application.appspot.com"
  },
  "client": [
    {
      "client_info": {
        "mobilesdk_app_id": "1:342574660041:android:e6e29a2ceba8a3746c5018",
        "android_client_info": {
          "package_name": "com.example.marvellicious_application"
        }
      },
      "oauth_client": [
        {
          "client_id": "342574660041-r7lr665cp1juooc2bl4n95j3ko86iug6.apps.googleusercontent.com",
          "client_type": 3
        }
      ],
      "api_key": [
        {
          "current_key": "AIzaSyDPoOvJ75ShOOPidYxkjhxTLxurrPro464"
        }
      ],
      "services": {
        "appinvite_service": {
          "other_platform_oauth_client": [
            {
              "client_id": "342574660041-r7lr665cp1juooc2bl4n95j3ko86iug6.apps.googleusercontent.com",
              "client_type": 3
            }
          ]
        }
      }
    }
  ],
  "configuration_version": "1"
}